%YAML 1.1
%TAG !u! tag:unity3d.com,2011:
--- !u!1 &4923522149570642508
GameObject:
  m_ObjectHideFlags: 0
  m_CorrespondingSourceObject: {fileID: 0}
  m_PrefabInstance: {fileID: 0}
  m_PrefabAsset: {fileID: 0}
  serializedVersion: 6
  m_Component:
  - component: {fileID: 2559179630784245449}
  - component: {fileID: 6629123362587596827}
  m_Layer: 0
  m_Name: artcity10
  m_TagString: Untagged
  m_Icon: {fileID: 0}
  m_NavMeshLayer: 0
  m_StaticEditorFlags: 0
  m_IsActive: 1
--- !u!4 &2559179630784245449
Transform:
  m_ObjectHideFlags: 0
  m_CorrespondingSourceObject: {fileID: 0}
  m_PrefabInstance: {fileID: 0}
  m_PrefabAsset: {fileID: 0}
  m_GameObject: {fileID: 4923522149570642508}
  m_LocalRotation: {x: 0, y: 0, z: 0, w: 1}
  m_LocalPosition: {x: 0, y: 0, z: 0}
  m_LocalScale: {x: 1, y: 1, z: 1}
  m_Children:
  - {fileID: 7413124111113098316}
  m_Father: {fileID: 0}
  m_RootOrder: 0
  m_LocalEulerAnglesHint: {x: 0, y: 0, z: 0}
--- !u!65 &6629123362587596827
BoxCollider:
  m_ObjectHideFlags: 0
  m_CorrespondingSourceObject: {fileID: 0}
  m_PrefabInstance: {fileID: 0}
  m_PrefabAsset: {fileID: 0}
  m_GameObject: {fileID: 4923522149570642508}
  m_Material: {fileID: 0}
  m_IsTrigger: 0
  m_Enabled: 1
  serializedVersion: 2
  m_Size: {x: 38.07441, y: 60.99685, z: 24.68474}
  m_Center: {x: -0.83714676, y: 30.374233, z: -0.5019064}
--- !u!4 &7413124111113098316 stripped
Transform:
  m_CorrespondingSourceObject: {fileID: 4068874953551916, guid: 65731f66c7b7447248750c9aa46a74b8,
    type: 3}
  m_PrefabInstance: {fileID: 7417078411169522784}
  m_PrefabAsset: {fileID: 0}
--- !u!1001 &7417078411169522784
PrefabInstance:
  m_ObjectHideFlags: 0
  serializedVersion: 2
  m_Modification:
    m_TransformParent: {fileID: 2559179630784245449}
    m_Modifications:
    - target: {fileID: 4775412977973757728, guid: 65731f66c7b7447248750c9aa46a74b8,
        type: 3}
      propertyPath: m_LocalPosition.x
      value: 0
      objectReference: {fileID: 0}
    - target: {fileID: 4775412977973757728, guid: 65731f66c7b7447248750c9aa46a74b8,
        type: 3}
      propertyPath: m_LocalPosition.y
      value: 0
      objectReference: {fileID: 0}
    - target: {fileID: 4775412977973757728, guid: 65731f66c7b7447248750c9aa46a74b8,
        type: 3}
      propertyPath: m_LocalPosition.z
      value: 0
      objectReference: {fileID: 0}
    - target: {fileID: 4775412977973757728, guid: 65731f66c7b7447248750c9aa46a74b8,
        type: 3}
      propertyPath: m_LocalRotation.x
      value: 0
      objectReference: {fileID: 0}
    - target: {fileID: 4775412977973757728, guid: 65731f66c7b7447248750c9aa46a74b8,
        type: 3}
      propertyPath: m_LocalRotation.y
      value: 0
      objectReference: {fileID: 0}
    - target: {fileID: 4775412977973757728, guid: 65731f66c7b7447248750c9aa46a74b8,
        type: 3}
      propertyPath: m_LocalRotation.z
      value: 0
      objectReference: {fileID: 0}
    - target: {fileID: 4775412977973757728, guid: 65731f66c7b7447248750c9aa46a74b8,
        type: 3}
      propertyPath: m_LocalRotation.w
      value: 1
      objectReference: {fileID: 0}
    - target: {fileID: 4775412977973757728, guid: 65731f66c7b7447248750c9aa46a74b8,
        type: 3}
      propertyPath: m_RootOrder
      value: 2
      objectReference: {fileID: 0}
    - target: {fileID: 4775412977973757728, guid: 65731f66c7b7447248750c9aa46a74b8,
        type: 3}
      propertyPath: m_LocalEulerAnglesHint.x
      value: 0
      objectReference: {fileID: 0}
    - target: {fileID: 4775412977973757728, guid: 65731f66c7b7447248750c9aa46a74b8,
        type: 3}
      propertyPath: m_LocalEulerAnglesHint.y
      value: 0
      objectReference: {fileID: 0}
    - target: {fileID: 4775412977973757728, guid: 65731f66c7b7447248750c9aa46a74b8,
        type: 3}
      propertyPath: m_LocalEulerAnglesHint.z
      value: 0
      objectReference: {fileID: 0}
    - target: {fileID: 4775412977973757735, guid: 65731f66c7b7447248750c9aa46a74b8,
        type: 3}
      propertyPath: m_Name
      value: artcity10
      objectReference: {fileID: 0}
    - target: {fileID: 4068874953551916, guid: 65731f66c7b7447248750c9aa46a74b8, type: 3}
      propertyPath: m_RootOrder
      value: 0
      objectReference: {fileID: 0}
    - target: {fileID: 4068874953551916, guid: 65731f66c7b7447248750c9aa46a74b8, type: 3}
      propertyPath: m_LocalPosition.x
      value: 0
      objectReference: {fileID: 0}
    - target: {fileID: 4068874953551916, guid: 65731f66c7b7447248750c9aa46a74b8, type: 3}
      propertyPath: m_LocalPosition.z
      value: 0
      objectReference: {fileID: 0}
    - target: {fileID: 4068874953551916, guid: 65731f66c7b7447248750c9aa46a74b8, type: 3}
      propertyPath: m_LocalPosition.y
      value: -0.1
      objectReference: {fileID: 0}
    - target: {fileID: 1782536925985350, guid: 65731f66c7b7447248750c9aa46a74b8, type: 3}
      propertyPath: m_Name
      value: home
      objectReference: {fileID: 0}
    - target: {fileID: 4068874953551916, guid: 65731f66c7b7447248750c9aa46a74b8, type: 3}
      propertyPath: m_LocalRotation.x
      value: -0
      objectReference: {fileID: 0}
    - target: {fileID: 4068874953551916, guid: 65731f66c7b7447248750c9aa46a74b8, type: 3}
      propertyPath: m_LocalRotation.y
      value: -0
      objectReference: {fileID: 0}
    - target: {fileID: 4068874953551916, guid: 65731f66c7b7447248750c9aa46a74b8, type: 3}
      propertyPath: m_LocalRotation.z
      value: -0
      objectReference: {fileID: 0}
    m_RemovedComponents:
    - {fileID: 65435812372492982, guid: 65731f66c7b7447248750c9aa46a74b8, type: 3}
  m_SourcePrefab: {fileID: 100100000, guid: 65731f66c7b7447248750c9aa46a74b8, type: 3}
